Alias name     administrators
Comment        Administrators have complete and unrestricted access to the computer/domain

Members

-------------------------------------------------------------------------------
ADAUDIT77\Domain Admins
kastytis
The command completed successfully.

Alias name     Remote Desktop Users
Comment        Members in this group are granted the right to logon remotely

Members

-------------------------------------------------------------------------------
The command completed successfully.


User accounts for \\APPAD1

-------------------------------------------------------------------------------
DefaultAccount           Guest                    kastytis                 
WDAGUtilityAccount       
The command completed successfully.

